2020-08-10 21:29:08,565 INFO: Microblog startup [in C:\Users\Admin\flask_flog\app\__init__.py:45]
2020-08-10 21:50:07,597 INFO: Microblog startup [in C:\Users\Admin\flask_flog\app\__init__.py:45]
2020-08-10 22:01:03,741 INFO: Microblog startup [in C:\Users\Admin\flask_flog\app\__init__.py:45]
2020-08-10 22:15:01,083 INFO: Microblog startup [in C:\Users\Admin\flask_flog\app\__init__.py:45]
2020-08-10 23:08:17,002 INFO: Microblog startup [in C:\Users\Admin\flask_flog\app\__init__.py:45]
2020-08-11 08:59:12,779 INFO: Microblog startup [in C:\Users\Admin\flask_flog\app\__init__.py:45]
2020-08-11 09:39:32,542 INFO: Microblog startup [in C:\Users\Admin\flask_flog\app\__init__.py:45]
2020-08-11 09:39:50,234 ERROR: Exception on /reset_password_request [POST] [in C:\Users\Admin\flask_flog\venv\lib\site-packages\flask\app.py:1891]
Traceback (most recent call last):
  File "C:\Users\Admin\flask_flog\venv\lib\site-packages\sqlalchemy\engine\base.py", line 1277, in _execute_context
    self.dialect.do_execute(
  File "C:\Users\Admin\flask_flog\venv\lib\site-packages\sqlalchemy\engine\default.py", line 593, in do_execute
    cursor.execute(statement, parameters)
  File "C:\Users\Admin\flask_flog\venv\lib\site-packages\pymysql\cursors.py", line 163, in execute
    result = self._query(query)
  File "C:\Users\Admin\flask_flog\venv\lib\site-packages\pymysql\cursors.py", line 321, in _query
    conn.query(q)
  File "C:\Users\Admin\flask_flog\venv\lib\site-packages\pymysql\connections.py", line 505, in query
    self._affected_rows = self._read_query_result(unbuffered=unbuffered)
  File "C:\Users\Admin\flask_flog\venv\lib\site-packages\pymysql\connections.py", line 724, in _read_query_result
    result.read()
  File "C:\Users\Admin\flask_flog\venv\lib\site-packages\pymysql\connections.py", line 1069, in read
    first_packet = self.connection._read_packet()
  File "C:\Users\Admin\flask_flog\venv\lib\site-packages\pymysql\connections.py", line 676, in _read_packet
    packet.raise_for_error()
  File "C:\Users\Admin\flask_flog\venv\lib\site-packages\pymysql\protocol.py", line 223, in raise_for_error
    err.raise_mysql_exception(self._data)
  File "C:\Users\Admin\flask_flog\venv\lib\site-packages\pymysql\err.py", line 107, in raise_mysql_exception
    raise errorclass(errno, errval)
pymysql.err.OperationalError: (1054, "Unknown column 'user.password_hash' in 'field list'")

The above exception was the direct cause of the following exception:

Traceback (most recent call last):
  File "C:\Users\Admin\flask_flog\venv\lib\site-packages\flask\app.py", line 2447, in wsgi_app
    response = self.full_dispatch_request()
  File "C:\Users\Admin\flask_flog\venv\lib\site-packages\flask\app.py", line 1952, in full_dispatch_request
    rv = self.handle_user_exception(e)
  File "C:\Users\Admin\flask_flog\venv\lib\site-packages\flask\app.py", line 1821, in handle_user_exception
    reraise(exc_type, exc_value, tb)
  File "C:\Users\Admin\flask_flog\venv\lib\site-packages\flask\_compat.py", line 39, in reraise
    raise value
  File "C:\Users\Admin\flask_flog\venv\lib\site-packages\flask\app.py", line 1950, in full_dispatch_request
    rv = self.dispatch_request()
  File "C:\Users\Admin\flask_flog\venv\lib\site-packages\flask\app.py", line 1936, in dispatch_request
    return self.view_functions[rule.endpoint](**req.view_args)
  File "C:\Users\Admin\flask_flog\app\routes.py", line 101, in reset_password_request
    user = User.query.filter_by(email=form.email.data).first()
  File "C:\Users\Admin\flask_flog\venv\lib\site-packages\sqlalchemy\orm\query.py", line 3397, in first
    ret = list(self[0:1])
  File "C:\Users\Admin\flask_flog\venv\lib\site-packages\sqlalchemy\orm\query.py", line 3171, in __getitem__
    return list(res)
  File "C:\Users\Admin\flask_flog\venv\lib\site-packages\sqlalchemy\orm\query.py", line 3503, in __iter__
    return self._execute_and_instances(context)
  File "C:\Users\Admin\flask_flog\venv\lib\site-packages\sqlalchemy\orm\query.py", line 3528, in _execute_and_instances
    result = conn.execute(querycontext.statement, self._params)
  File "C:\Users\Admin\flask_flog\venv\lib\site-packages\sqlalchemy\engine\base.py", line 1014, in execute
    return meth(self, multiparams, params)
  File "C:\Users\Admin\flask_flog\venv\lib\site-packages\sqlalchemy\sql\elements.py", line 298, in _execute_on_connection
    return connection._execute_clauseelement(self, multiparams, params)
  File "C:\Users\Admin\flask_flog\venv\lib\site-packages\sqlalchemy\engine\base.py", line 1127, in _execute_clauseelement
    ret = self._execute_context(
  File "C:\Users\Admin\flask_flog\venv\lib\site-packages\sqlalchemy\engine\base.py", line 1317, in _execute_context
    self._handle_dbapi_exception(
  File "C:\Users\Admin\flask_flog\venv\lib\site-packages\sqlalchemy\engine\base.py", line 1511, in _handle_dbapi_exception
    util.raise_(
  File "C:\Users\Admin\flask_flog\venv\lib\site-packages\sqlalchemy\util\compat.py", line 178, in raise_
    raise exception
  File "C:\Users\Admin\flask_flog\venv\lib\site-packages\sqlalchemy\engine\base.py", line 1277, in _execute_context
    self.dialect.do_execute(
  File "C:\Users\Admin\flask_flog\venv\lib\site-packages\sqlalchemy\engine\default.py", line 593, in do_execute
    cursor.execute(statement, parameters)
  File "C:\Users\Admin\flask_flog\venv\lib\site-packages\pymysql\cursors.py", line 163, in execute
    result = self._query(query)
  File "C:\Users\Admin\flask_flog\venv\lib\site-packages\pymysql\cursors.py", line 321, in _query
    conn.query(q)
  File "C:\Users\Admin\flask_flog\venv\lib\site-packages\pymysql\connections.py", line 505, in query
    self._affected_rows = self._read_query_result(unbuffered=unbuffered)
  File "C:\Users\Admin\flask_flog\venv\lib\site-packages\pymysql\connections.py", line 724, in _read_query_result
    result.read()
  File "C:\Users\Admin\flask_flog\venv\lib\site-packages\pymysql\connections.py", line 1069, in read
    first_packet = self.connection._read_packet()
  File "C:\Users\Admin\flask_flog\venv\lib\site-packages\pymysql\connections.py", line 676, in _read_packet
    packet.raise_for_error()
  File "C:\Users\Admin\flask_flog\venv\lib\site-packages\pymysql\protocol.py", line 223, in raise_for_error
    err.raise_mysql_exception(self._data)
  File "C:\Users\Admin\flask_flog\venv\lib\site-packages\pymysql\err.py", line 107, in raise_mysql_exception
    raise errorclass(errno, errval)
sqlalchemy.exc.OperationalError: (pymysql.err.OperationalError) (1054, "Unknown column 'user.password_hash' in 'field list'")
[SQL: SELECT user.id AS user_id, user.username AS user_username, user.email AS user_email, user.password_hash AS user_password_hash, user.about_me AS user_about_me, user.last_seen AS user_last_seen 
FROM user 
WHERE user.email = %(email_1)s 
 LIMIT %(param_1)s]
[parameters: {'email_1': 'fiji8800@gmail.com', 'param_1': 1}]
(Background on this error at: http://sqlalche.me/e/13/e3q8)
2020-08-11 10:48:27,624 INFO: Microblog startup [in C:\Users\Admin\flask_flog\app\__init__.py:45]
2020-08-11 10:54:42,858 INFO: Microblog startup [in C:\Users\Admin\flask_flog\app\__init__.py:45]
2020-08-11 11:50:29,522 INFO: Microblog startup [in C:\Users\Admin\flask_flog\app\__init__.py:46]
