2020-08-11 12:07:36,232 ERROR: Exception on /register [POST] [in c:\users\admin\flask_flog\venv\lib\site-packages\flask\app.py:1891]
Traceback (most recent call last):
  File "c:\users\admin\flask_flog\venv\lib\site-packages\sqlalchemy\engine\base.py", line 1277, in _execute_context
    self.dialect.do_execute(
  File "c:\users\admin\flask_flog\venv\lib\site-packages\sqlalchemy\engine\default.py", line 593, in do_execute
    cursor.execute(statement, parameters)
  File "c:\users\admin\flask_flog\venv\lib\site-packages\pymysql\cursors.py", line 163, in execute
    result = self._query(query)
  File "c:\users\admin\flask_flog\venv\lib\site-packages\pymysql\cursors.py", line 321, in _query
    conn.query(q)
  File "c:\users\admin\flask_flog\venv\lib\site-packages\pymysql\connections.py", line 505, in query
    self._affected_rows = self._read_query_result(unbuffered=unbuffered)
  File "c:\users\admin\flask_flog\venv\lib\site-packages\pymysql\connections.py", line 724, in _read_query_result
    result.read()
  File "c:\users\admin\flask_flog\venv\lib\site-packages\pymysql\connections.py", line 1069, in read
    first_packet = self.connection._read_packet()
  File "c:\users\admin\flask_flog\venv\lib\site-packages\pymysql\connections.py", line 676, in _read_packet
    packet.raise_for_error()
  File "c:\users\admin\flask_flog\venv\lib\site-packages\pymysql\protocol.py", line 223, in raise_for_error
    err.raise_mysql_exception(self._data)
  File "c:\users\admin\flask_flog\venv\lib\site-packages\pymysql\err.py", line 107, in raise_mysql_exception
    raise errorclass(errno, errval)
pymysql.err.ProgrammingError: (1146, "Table 'mega.user' doesn't exist")

The above exception was the direct cause of the following exception:

Traceback (most recent call last):
  File "c:\users\admin\flask_flog\venv\lib\site-packages\flask\app.py", line 2447, in wsgi_app
    response = self.full_dispatch_request()
  File "c:\users\admin\flask_flog\venv\lib\site-packages\flask\app.py", line 1952, in full_dispatch_request
    rv = self.handle_user_exception(e)
  File "c:\users\admin\flask_flog\venv\lib\site-packages\flask\app.py", line 1821, in handle_user_exception
    reraise(exc_type, exc_value, tb)
  File "c:\users\admin\flask_flog\venv\lib\site-packages\flask\_compat.py", line 39, in reraise
    raise value
  File "c:\users\admin\flask_flog\venv\lib\site-packages\flask\app.py", line 1950, in full_dispatch_request
    rv = self.dispatch_request()
  File "c:\users\admin\flask_flog\venv\lib\site-packages\flask\app.py", line 1936, in dispatch_request
    return self.view_functions[rule.endpoint](**req.view_args)
  File "C:\Users\Admin\flask_flog\app\routes.py", line 85, in register
    if form.validate_on_submit():
  File "c:\users\admin\flask_flog\venv\lib\site-packages\flask_wtf\form.py", line 100, in validate_on_submit
    return self.is_submitted() and self.validate()
  File "c:\users\admin\flask_flog\venv\lib\site-packages\wtforms\form.py", line 318, in validate
    return super(Form, self).validate(extra)
  File "c:\users\admin\flask_flog\venv\lib\site-packages\wtforms\form.py", line 150, in validate
    if not field.validate(self, extra):
  File "c:\users\admin\flask_flog\venv\lib\site-packages\wtforms\fields\core.py", line 226, in validate
    stop_validation = self._run_validation_chain(form, chain)
  File "c:\users\admin\flask_flog\venv\lib\site-packages\wtforms\fields\core.py", line 246, in _run_validation_chain
    validator(form, self)
  File "C:\Users\Admin\flask_flog\app\forms.py", line 25, in validate_username
    user = User.query.filter_by(username=username.data).first()
  File "c:\users\admin\flask_flog\venv\lib\site-packages\sqlalchemy\orm\query.py", line 3397, in first
    ret = list(self[0:1])
  File "c:\users\admin\flask_flog\venv\lib\site-packages\sqlalchemy\orm\query.py", line 3171, in __getitem__
    return list(res)
  File "c:\users\admin\flask_flog\venv\lib\site-packages\sqlalchemy\orm\query.py", line 3503, in __iter__
    return self._execute_and_instances(context)
  File "c:\users\admin\flask_flog\venv\lib\site-packages\sqlalchemy\orm\query.py", line 3528, in _execute_and_instances
    result = conn.execute(querycontext.statement, self._params)
  File "c:\users\admin\flask_flog\venv\lib\site-packages\sqlalchemy\engine\base.py", line 1014, in execute
    return meth(self, multiparams, params)
  File "c:\users\admin\flask_flog\venv\lib\site-packages\sqlalchemy\sql\elements.py", line 298, in _execute_on_connection
    return connection._execute_clauseelement(self, multiparams, params)
  File "c:\users\admin\flask_flog\venv\lib\site-packages\sqlalchemy\engine\base.py", line 1127, in _execute_clauseelement
    ret = self._execute_context(
  File "c:\users\admin\flask_flog\venv\lib\site-packages\sqlalchemy\engine\base.py", line 1317, in _execute_context
    self._handle_dbapi_exception(
  File "c:\users\admin\flask_flog\venv\lib\site-packages\sqlalchemy\engine\base.py", line 1511, in _handle_dbapi_exception
    util.raise_(
  File "c:\users\admin\flask_flog\venv\lib\site-packages\sqlalchemy\util\compat.py", line 178, in raise_
    raise exception
  File "c:\users\admin\flask_flog\venv\lib\site-packages\sqlalchemy\engine\base.py", line 1277, in _execute_context
    self.dialect.do_execute(
  File "c:\users\admin\flask_flog\venv\lib\site-packages\sqlalchemy\engine\default.py", line 593, in do_execute
    cursor.execute(statement, parameters)
  File "c:\users\admin\flask_flog\venv\lib\site-packages\pymysql\cursors.py", line 163, in execute
    result = self._query(query)
  File "c:\users\admin\flask_flog\venv\lib\site-packages\pymysql\cursors.py", line 321, in _query
    conn.query(q)
  File "c:\users\admin\flask_flog\venv\lib\site-packages\pymysql\connections.py", line 505, in query
    self._affected_rows = self._read_query_result(unbuffered=unbuffered)
  File "c:\users\admin\flask_flog\venv\lib\site-packages\pymysql\connections.py", line 724, in _read_query_result
    result.read()
  File "c:\users\admin\flask_flog\venv\lib\site-packages\pymysql\connections.py", line 1069, in read
    first_packet = self.connection._read_packet()
  File "c:\users\admin\flask_flog\venv\lib\site-packages\pymysql\connections.py", line 676, in _read_packet
    packet.raise_for_error()
  File "c:\users\admin\flask_flog\venv\lib\site-packages\pymysql\protocol.py", line 223, in raise_for_error
    err.raise_mysql_exception(self._data)
  File "c:\users\admin\flask_flog\venv\lib\site-packages\pymysql\err.py", line 107, in raise_mysql_exception
    raise errorclass(errno, errval)
sqlalchemy.exc.ProgrammingError: (pymysql.err.ProgrammingError) (1146, "Table 'mega.user' doesn't exist")
[SQL: SELECT user.id AS user_id, user.username AS user_username, user.email AS user_email, user.password_hash AS user_password_hash, user.about_me AS user_about_me, user.last_seen AS user_last_seen 
FROM user 
WHERE user.username = %(username_1)s 
 LIMIT %(param_1)s]
[parameters: {'username_1': 'Barni Pack', 'param_1': 1}]
(Background on this error at: http://sqlalche.me/e/13/f405)
2020-08-11 12:09:46,786 INFO: Microblog startup [in C:\Users\Admin\flask_flog\app\__init__.py:46]
2020-08-11 12:09:54,758 INFO: Microblog startup [in C:\Users\Admin\flask_flog\app\__init__.py:46]
2020-08-11 12:10:21,127 INFO: Microblog startup [in C:\Users\Admin\flask_flog\app\__init__.py:46]
2020-08-13 08:26:32,724 INFO: Microblog startup [in C:\Users\Admin\flask_flog\app\__init__.py:46]
2020-08-13 08:54:23,123 INFO: Microblog startup [in C:\Users\Admin\flask_flog\app\__init__.py:46]
2020-08-13 08:54:36,693 INFO: Microblog startup [in C:\Users\Admin\flask_flog\app\__init__.py:46]
2020-08-13 08:54:54,397 INFO: Microblog startup [in C:\Users\Admin\flask_flog\app\__init__.py:46]
2020-08-13 08:55:10,661 ERROR: Exception on /like/1/unlike [GET] [in c:\users\admin\flask_flog\venv\lib\site-packages\flask\app.py:1891]
Traceback (most recent call last):
  File "c:\users\admin\flask_flog\venv\lib\site-packages\flask\app.py", line 2447, in wsgi_app
    response = self.full_dispatch_request()
  File "c:\users\admin\flask_flog\venv\lib\site-packages\flask\app.py", line 1952, in full_dispatch_request
    rv = self.handle_user_exception(e)
  File "c:\users\admin\flask_flog\venv\lib\site-packages\flask\app.py", line 1821, in handle_user_exception
    reraise(exc_type, exc_value, tb)
  File "c:\users\admin\flask_flog\venv\lib\site-packages\flask\_compat.py", line 39, in reraise
    raise value
  File "c:\users\admin\flask_flog\venv\lib\site-packages\flask\app.py", line 1950, in full_dispatch_request
    rv = self.dispatch_request()
  File "c:\users\admin\flask_flog\venv\lib\site-packages\flask\app.py", line 1936, in dispatch_request
    return self.view_functions[rule.endpoint](**req.view_args)
  File "c:\users\admin\flask_flog\venv\lib\site-packages\flask_login\utils.py", line 272, in decorated_view
    return func(*args, **kwargs)
  File "C:\Users\Admin\flask_flog\app\routes.py", line 207, in like_action
    current_user.unlike_post(post)
  File "C:\Users\Admin\flask_flog\app\models.py", line 80, in unlike_post
    if self.had_liked_post(post):
AttributeError: 'User' object has no attribute 'had_liked_post'
