2020-08-13 18:12:39,878 ERROR: Exception on /login [GET] [in C:\Users\Admin\flask_flog\venv\lib\site-packages\flask\app.py:1891]
Traceback (most recent call last):
  File "C:\Users\Admin\flask_flog\venv\lib\site-packages\flask\app.py", line 2447, in wsgi_app
    response = self.full_dispatch_request()
  File "C:\Users\Admin\flask_flog\venv\lib\site-packages\flask\app.py", line 1952, in full_dispatch_request
    rv = self.handle_user_exception(e)
  File "C:\Users\Admin\flask_flog\venv\lib\site-packages\flask\app.py", line 1821, in handle_user_exception
    reraise(exc_type, exc_value, tb)
  File "C:\Users\Admin\flask_flog\venv\lib\site-packages\flask\_compat.py", line 39, in reraise
    raise value
  File "C:\Users\Admin\flask_flog\venv\lib\site-packages\flask\app.py", line 1950, in full_dispatch_request
    rv = self.dispatch_request()
  File "C:\Users\Admin\flask_flog\venv\lib\site-packages\flask\app.py", line 1936, in dispatch_request
    return self.view_functions[rule.endpoint](**req.view_args)
  File "C:\Users\Admin\flask_flog\app\routes.py", line 71, in login
    return render_template('login.html', title='Sign In', form=form)
  File "C:\Users\Admin\flask_flog\venv\lib\site-packages\flask\templating.py", line 137, in render_template
    return _render(
  File "C:\Users\Admin\flask_flog\venv\lib\site-packages\flask\templating.py", line 120, in _render
    rv = template.render(context)
  File "C:\Users\Admin\flask_flog\venv\lib\site-packages\jinja2\environment.py", line 1090, in render
    self.environment.handle_exception()
  File "C:\Users\Admin\flask_flog\venv\lib\site-packages\jinja2\environment.py", line 832, in handle_exception
    reraise(*rewrite_traceback_stack(source=source))
  File "C:\Users\Admin\flask_flog\venv\lib\site-packages\jinja2\_compat.py", line 28, in reraise
    raise value.with_traceback(tb)
  File "C:\Users\Admin\flask_flog\app\templates\login.html", line 2, in top-level template code
    {% import 'bootsrap/wtf.html' as wtf %}
  File "C:\Users\Admin\flask_flog\venv\lib\site-packages\flask\templating.py", line 60, in get_source
    return self._get_source_fast(environment, template)
  File "C:\Users\Admin\flask_flog\venv\lib\site-packages\flask\templating.py", line 89, in _get_source_fast
    raise TemplateNotFound(template)
jinja2.exceptions.TemplateNotFound: bootsrap/wtf.html
2020-08-13 18:19:01,511 ERROR: Exception on /login [GET] [in C:\Users\Admin\flask_flog\venv\lib\site-packages\flask\app.py:1891]
Traceback (most recent call last):
  File "C:\Users\Admin\flask_flog\venv\lib\site-packages\flask\app.py", line 2447, in wsgi_app
    response = self.full_dispatch_request()
  File "C:\Users\Admin\flask_flog\venv\lib\site-packages\flask\app.py", line 1952, in full_dispatch_request
    rv = self.handle_user_exception(e)
  File "C:\Users\Admin\flask_flog\venv\lib\site-packages\flask\app.py", line 1821, in handle_user_exception
    reraise(exc_type, exc_value, tb)
  File "C:\Users\Admin\flask_flog\venv\lib\site-packages\flask\_compat.py", line 39, in reraise
    raise value
  File "C:\Users\Admin\flask_flog\venv\lib\site-packages\flask\app.py", line 1950, in full_dispatch_request
    rv = self.dispatch_request()
  File "C:\Users\Admin\flask_flog\venv\lib\site-packages\flask\app.py", line 1936, in dispatch_request
    return self.view_functions[rule.endpoint](**req.view_args)
  File "C:\Users\Admin\flask_flog\app\routes.py", line 71, in login
    return render_template('login.html', title='Sign In', form=form)
  File "C:\Users\Admin\flask_flog\venv\lib\site-packages\flask\templating.py", line 137, in render_template
    return _render(
  File "C:\Users\Admin\flask_flog\venv\lib\site-packages\flask\templating.py", line 120, in _render
    rv = template.render(context)
  File "C:\Users\Admin\flask_flog\venv\lib\site-packages\jinja2\environment.py", line 1090, in render
    self.environment.handle_exception()
  File "C:\Users\Admin\flask_flog\venv\lib\site-packages\jinja2\environment.py", line 832, in handle_exception
    reraise(*rewrite_traceback_stack(source=source))
  File "C:\Users\Admin\flask_flog\venv\lib\site-packages\jinja2\_compat.py", line 28, in reraise
    raise value.with_traceback(tb)
  File "C:\Users\Admin\flask_flog\app\templates\login.html", line 2, in top-level template code
    {% import 'bootsrap/wtf.html' as wtf %}
  File "C:\Users\Admin\flask_flog\venv\lib\site-packages\flask\templating.py", line 60, in get_source
    return self._get_source_fast(environment, template)
  File "C:\Users\Admin\flask_flog\venv\lib\site-packages\flask\templating.py", line 89, in _get_source_fast
    raise TemplateNotFound(template)
jinja2.exceptions.TemplateNotFound: bootsrap/wtf.html
2020-08-13 18:19:57,332 INFO: Microblog startup [in C:\Users\Admin\flask_flog\app\__init__.py:50]
2020-08-13 18:19:59,704 ERROR: Exception on /login [GET] [in C:\Users\Admin\flask_flog\venv\lib\site-packages\flask\app.py:1891]
Traceback (most recent call last):
  File "C:\Users\Admin\flask_flog\venv\lib\site-packages\flask\app.py", line 2447, in wsgi_app
    response = self.full_dispatch_request()
  File "C:\Users\Admin\flask_flog\venv\lib\site-packages\flask\app.py", line 1952, in full_dispatch_request
    rv = self.handle_user_exception(e)
  File "C:\Users\Admin\flask_flog\venv\lib\site-packages\flask\app.py", line 1821, in handle_user_exception
    reraise(exc_type, exc_value, tb)
  File "C:\Users\Admin\flask_flog\venv\lib\site-packages\flask\_compat.py", line 39, in reraise
    raise value
  File "C:\Users\Admin\flask_flog\venv\lib\site-packages\flask\app.py", line 1950, in full_dispatch_request
    rv = self.dispatch_request()
  File "C:\Users\Admin\flask_flog\venv\lib\site-packages\flask\app.py", line 1936, in dispatch_request
    return self.view_functions[rule.endpoint](**req.view_args)
  File "C:\Users\Admin\flask_flog\app\routes.py", line 71, in login
    return render_template('login.html', title='Sign In', form=form)
  File "C:\Users\Admin\flask_flog\venv\lib\site-packages\flask\templating.py", line 137, in render_template
    return _render(
  File "C:\Users\Admin\flask_flog\venv\lib\site-packages\flask\templating.py", line 120, in _render
    rv = template.render(context)
  File "C:\Users\Admin\flask_flog\venv\lib\site-packages\jinja2\environment.py", line 1090, in render
    self.environment.handle_exception()
  File "C:\Users\Admin\flask_flog\venv\lib\site-packages\jinja2\environment.py", line 832, in handle_exception
    reraise(*rewrite_traceback_stack(source=source))
  File "C:\Users\Admin\flask_flog\venv\lib\site-packages\jinja2\_compat.py", line 28, in reraise
    raise value.with_traceback(tb)
  File "C:\Users\Admin\flask_flog\app\templates\login.html", line 2, in top-level template code
    {% import 'bootsrap/wtf.html' as wtf %}
  File "C:\Users\Admin\flask_flog\venv\lib\site-packages\flask\templating.py", line 60, in get_source
    return self._get_source_fast(environment, template)
  File "C:\Users\Admin\flask_flog\venv\lib\site-packages\flask\templating.py", line 89, in _get_source_fast
    raise TemplateNotFound(template)
jinja2.exceptions.TemplateNotFound: bootsrap/wtf.html
2020-08-13 18:26:07,813 INFO: Microblog startup [in C:\Users\Admin\flask_flog\app\__init__.py:50]
2020-08-13 18:26:11,559 ERROR: Exception on /login [GET] [in C:\Users\Admin\flask_flog\venv\lib\site-packages\flask\app.py:1891]
Traceback (most recent call last):
  File "C:\Users\Admin\flask_flog\venv\lib\site-packages\flask\app.py", line 2447, in wsgi_app
    response = self.full_dispatch_request()
  File "C:\Users\Admin\flask_flog\venv\lib\site-packages\flask\app.py", line 1952, in full_dispatch_request
    rv = self.handle_user_exception(e)
  File "C:\Users\Admin\flask_flog\venv\lib\site-packages\flask\app.py", line 1821, in handle_user_exception
    reraise(exc_type, exc_value, tb)
  File "C:\Users\Admin\flask_flog\venv\lib\site-packages\flask\_compat.py", line 39, in reraise
    raise value
  File "C:\Users\Admin\flask_flog\venv\lib\site-packages\flask\app.py", line 1950, in full_dispatch_request
    rv = self.dispatch_request()
  File "C:\Users\Admin\flask_flog\venv\lib\site-packages\flask\app.py", line 1936, in dispatch_request
    return self.view_functions[rule.endpoint](**req.view_args)
  File "C:\Users\Admin\flask_flog\app\routes.py", line 71, in login
    return render_template('login.html', title='Sign In', form=form)
  File "C:\Users\Admin\flask_flog\venv\lib\site-packages\flask\templating.py", line 137, in render_template
    return _render(
  File "C:\Users\Admin\flask_flog\venv\lib\site-packages\flask\templating.py", line 120, in _render
    rv = template.render(context)
  File "C:\Users\Admin\flask_flog\venv\lib\site-packages\jinja2\environment.py", line 1090, in render
    self.environment.handle_exception()
  File "C:\Users\Admin\flask_flog\venv\lib\site-packages\jinja2\environment.py", line 832, in handle_exception
    reraise(*rewrite_traceback_stack(source=source))
  File "C:\Users\Admin\flask_flog\venv\lib\site-packages\jinja2\_compat.py", line 28, in reraise
    raise value.with_traceback(tb)
  File "C:\Users\Admin\flask_flog\app\templates\login.html", line 2, in top-level template code
    {% import 'bootsrap/wtf.html' as wtf %}
  File "C:\Users\Admin\flask_flog\venv\lib\site-packages\flask\templating.py", line 60, in get_source
    return self._get_source_fast(environment, template)
  File "C:\Users\Admin\flask_flog\venv\lib\site-packages\flask\templating.py", line 89, in _get_source_fast
    raise TemplateNotFound(template)
jinja2.exceptions.TemplateNotFound: bootsrap/wtf.html
2020-08-13 18:26:50,879 INFO: Microblog startup [in C:\Users\Admin\flask_flog\app\__init__.py:50]
